{
    "content": [],
    "context": {
        "proquest_source_create_xml_collection_document": {
            "articles": 1,
            "databases": [
                "nodatabase"
            ],
            "query": "noquery"
        }
    },
    "origin": null,
    "title": "",
    "type": "collection",
    "version": "1.0"
}