{
    "type": "collection",
    "title": "",
    "content": [],
    "context": {
        "pubmed_source_create_xml_collection_document": {
            "terms": [
                "fake",
                "search",
                "term"
            ],
            "articles": 10, 
            "hours": 24,
            "from_date": "",
            "to_date": ""
        }
    },
    "origin": null,
    "version": "1.0"
}