{
    "name": "pipeline_reddit",
    "pipes": [
        {
            "name": "search",
            "sources": [
                {
                    "type": "manifest",
                    "source": "reddit"
                }
            ],
            "steps": [
                {
                    "type": "reddit_source_create_form_collection_document",
                    "arguments": {
                        "search": "",
                        "subreddit": "",
                        "sort": ""
                    }
                }
            ]
        }
    ]
}
